%!PS-Adobe-3.0
%%Creator: 0.45
%%Pages: 1
%%Orientation: Portrait
%%BoundingBox: 0 0 596 842
%%HiResBoundingBox: 0 0 596 842
%%DocumentMedia: plain 596 842 0 () ()
%%EndComments
%%Page: 1 1
0 842 translate
0.8 -0.8 scale
0 0 0 setrgbcolor
[] 0 setdash
1 setlinewidth
0 setlinejoin
0 setlinecap
gsave [1 0 0 1 0 0] concat
0 0 0 setrgbcolor
[] 0 setdash
1 setlinewidth
0 setlinejoin
0 setlinecap
newpath
100 352.36218 moveto
100 622.36218 lineto
stroke
gsave [6.7353349e-017 1.1 -1.1 6.7353349e-017 100 353.46218] concat
gsave
0 0 0 setrgbcolor
newpath
8.7185878 4.0337352 moveto
-2.2072895 0.016013256 lineto
8.7185884 -4.0017078 lineto
6.97309 -1.6296469 6.9831476 1.6157441 8.7185878 4.0337352 curveto
closepath
eofill
grestore
grestore
0 0 0 setrgbcolor
[] 0 setdash
1 setlinewidth
0 setlinejoin
0 setlinecap
newpath
100 622.36218 moveto
470 622.36218 lineto
stroke
gsave [-1.1 0 0 -1.1 468.9 622.36218] concat
gsave
0 0 0 setrgbcolor
newpath
8.7185878 4.0337352 moveto
-2.2072895 0.016013256 lineto
8.7185884 -4.0017078 lineto
6.97309 -1.6296469 6.9831476 1.6157441 8.7185878 4.0337352 curveto
closepath
eofill
grestore
grestore
gsave [0.9580067 0.2867459 -0.2867459 0.9580067 0 0] concat
gsave
1 1 1 setrgbcolor
newpath
240.41943 315.15741 moveto
328.67212 315.15741 lineto
328.67212 371.42429 lineto
240.41943 371.42429 lineto
240.41943 315.15741 lineto
closepath
fill
grestore
0.0078431377 0 0.0039215689 setrgbcolor
[] 0 setdash
1 setlinewidth
0 setlinejoin
0 setlinecap
newpath
240.41943 315.15741 moveto
328.67212 315.15741 lineto
328.67212 371.42429 lineto
240.41943 371.42429 lineto
240.41943 315.15741 lineto
closepath
stroke
grestore
gsave [0.3671894 0.9301462 -0.9301462 0.3671894 0 0] concat
gsave
1 1 1 setrgbcolor
newpath
596.26263 -190.77591 moveto
678.81953 -190.77591 lineto
678.81953 -125.69071 lineto
596.26263 -125.69071 lineto
596.26263 -190.77591 lineto
closepath
fill
grestore
0.011764706 0 0 setrgbcolor
[] 0 setdash
1 setlinewidth
0 setlinejoin
0 setlinecap
newpath
596.26263 -190.77591 moveto
678.81953 -190.77591 lineto
678.81953 -125.69071 lineto
596.26263 -125.69071 lineto
596.26263 -190.77591 lineto
closepath
stroke
grestore
0 0 0 setrgbcolor
[] 0 setdash
1 setlinewidth
0 setlinejoin
0 setlinecap
newpath
175 412.36218 moveto
100 622.36218 lineto
380 532.36218 lineto
stroke
gsave [-0.20180184 0.56504515 -0.56504515 -0.20180184 175 412.36218] concat
gsave
0 0 0 setrgbcolor
newpath
8.7185878 4.0337352 moveto
-2.2072895 0.016013256 lineto
8.7185884 -4.0017078 lineto
6.97309 -1.6296469 6.9831476 1.6157441 8.7185878 4.0337352 curveto
closepath
eofill
grestore
grestore
gsave [-0.57121714 0.18360551 -0.18360551 -0.57121714 380 532.36218] concat
gsave
0 0 0 setrgbcolor
newpath
8.7185878 4.0337352 moveto
-2.2072895 0.016013256 lineto
8.7185884 -4.0017078 lineto
6.97309 -1.6296469 6.9831476 1.6157441 8.7185878 4.0337352 curveto
closepath
eofill
grestore
grestore
0 0 0 setrgbcolor
[] 0 setdash
1 setlinewidth
0 setlinejoin
0 setlinecap
newpath
175 412.36218 moveto
380 532.36218 lineto
stroke
0 0 0 setrgbcolor
[] 0 setdash
1 setlinewidth
0 setlinejoin
0 setlinecap
newpath
175 412.36218 moveto
200 427.36218 lineto
stroke
gsave [-0.51449576 -0.30869745 0.30869745 -0.51449576 200 427.36218] concat
gsave
0 0 0 setrgbcolor
newpath
8.7185878 4.0337352 moveto
-2.2072895 0.016013256 lineto
8.7185884 -4.0017078 lineto
6.97309 -1.6296469 6.9831476 1.6157441 8.7185878 4.0337352 curveto
closepath
eofill
grestore
grestore
0 0 0 setrgbcolor
[] 0 setdash
1 setlinewidth
0 setlinejoin
0 setlinecap
newpath
380 532.36218 moveto
355 517.36218 lineto
stroke
gsave [0.51449576 0.30869745 -0.30869745 0.51449576 355 517.36218] concat
gsave
0 0 0 setrgbcolor
newpath
8.7185878 4.0337352 moveto
-2.2072895 0.016013256 lineto
8.7185884 -4.0017078 lineto
6.97309 -1.6296469 6.9831476 1.6157441 8.7185878 4.0337352 curveto
closepath
eofill
grestore
grestore
gsave
0 0 0 setrgbcolor
newpath
280 454.24011 moveto
281.77539 454.24011 lineto
281.77539 465.86804 lineto
288.16504 465.86804 lineto
288.16504 467.36218 lineto
280 467.36218 lineto
280 454.24011 lineto
closepath
fill
grestore
gsave
0 0 0 setrgbcolor
newpath
464.81543 602.36218 moveto
461.25586 607.15222 lineto
465 612.20593 lineto
463.09277 612.20593 lineto
460.22754 608.33875 lineto
457.3623 612.20593 lineto
455.45508 612.20593 lineto
459.27832 607.05554 lineto
455.78027 602.36218 lineto
457.6875 602.36218 lineto
460.29785 605.86902 lineto
462.9082 602.36218 lineto
464.81543 602.36218 lineto
closepath
fill
grestore
gsave
0 0 0 setrgbcolor
newpath
85.675781 363.12 moveto
85.218745 364.29187 84.773433 365.05652 84.339844 365.41394 curveto
83.906246 365.77136 83.326168 365.95007 82.599609 365.95007 curveto
81.307617 365.95007 lineto
81.307617 364.59656 lineto
82.256836 364.59656 lineto
82.702146 364.59656 83.047848 364.49109 83.293945 364.28015 curveto
83.540035 364.06921 83.812496 363.57117 84.111328 362.78601 curveto
84.401367 362.04773 lineto
80.419922 352.36218 lineto
82.133789 352.36218 lineto
85.209961 360.0614 lineto
88.286133 352.36218 lineto
90 352.36218 lineto
85.675781 363.12 lineto
closepath
fill
grestore
gsave
0 0 0 setrgbcolor
newpath
147.81934 530.96667 moveto
147.81934 536.18738 lineto
146.19336 536.18738 lineto
146.19336 522.59949 lineto
147.81934 522.59949 lineto
147.81934 524.09363 lineto
148.15918 523.5077 148.58837 523.07264 149.10693 522.78845 curveto
149.62548 522.50428 150.24511 522.36219 150.96582 522.36218 curveto
152.16113 522.36219 153.13232 522.8368 153.87939 523.78601 curveto
154.62645 524.73524 154.99999 525.98328 155 527.53015 curveto
154.99999 529.07703 154.62645 530.32508 153.87939 531.27429 curveto
153.13232 532.22351 152.16113 532.69812 150.96582 532.69812 curveto
150.24511 532.69812 149.62548 532.55603 149.10693 532.27185 curveto
148.58837 531.98767 148.15918 531.55261 147.81934 530.96667 curveto
147.81934 530.96667 lineto
closepath
153.32129 527.53015 moveto
153.32128 526.3407 153.07665 525.4076 152.5874 524.73083 curveto
152.09814 524.05409 151.42577 523.71571 150.57031 523.7157 curveto
149.71484 523.71571 149.04248 524.05409 148.55322 524.73083 curveto
148.06396 525.4076 147.81933 526.3407 147.81934 527.53015 curveto
147.81933 528.71961 148.06396 529.65271 148.55322 530.32947 curveto
149.04248 531.00623 149.71484 531.34461 150.57031 531.3446 curveto
151.42577 531.34461 152.09814 531.00623 152.5874 530.32947 curveto
153.07665 529.65271 153.32128 528.71961 153.32129 527.53015 curveto
153.32129 527.53015 lineto
closepath
fill
grestore
gsave
0 0 0 setrgbcolor
newpath
190.76563 404.03015 moveto
190.58398 403.92469 190.38622 403.84705 190.17236 403.79724 curveto
189.95849 403.74745 189.72265 403.72254 189.46484 403.72253 curveto
188.55078 403.72254 187.84912 404.01991 187.35986 404.61462 curveto
186.8706 405.20936 186.62597 406.06336 186.62598 407.17664 curveto
186.62598 412.36218 lineto
185 412.36218 lineto
185 402.51843 lineto
186.62598 402.51843 lineto
186.62598 404.04773 lineto
186.96582 403.45008 187.4082 403.00623 187.95313 402.71619 curveto
188.49804 402.42616 189.16015 402.28114 189.93945 402.28113 curveto
190.05077 402.28114 190.17382 402.28846 190.30859 402.3031 curveto
190.44335 402.31776 190.59277 402.33973 190.75684 402.36902 curveto
190.76563 404.03015 lineto
closepath
fill
grestore
gsave
0 0 0 setrgbcolor
newpath
190.11328 414.69812 moveto
191.40234 414.69812 lineto
191.40234 410.2489 lineto
190 410.53015 lineto
190 409.8114 lineto
191.39453 409.53015 lineto
192.18359 409.53015 lineto
192.18359 414.69812 lineto
193.47266 414.69812 lineto
193.47266 415.36218 lineto
190.11328 415.36218 lineto
190.11328 414.69812 lineto
closepath
fill
grestore
0 0 0 setrgbcolor
[] 0 setdash
1 setlinewidth
0 setlinejoin
0 setlinecap
newpath
183 400.36218 moveto
192 400.36218 lineto
stroke
gsave [-0.3 0 0 -0.3 192.69 400.36218] concat
gsave
0 0 0 setrgbcolor
newpath
8.7185878 4.0337352 moveto
-2.2072895 0.016013256 lineto
8.7185884 -4.0017078 lineto
6.97309 -1.6296469 6.9831476 1.6157441 8.7185878 4.0337352 curveto
closepath
eofill
grestore
grestore
gsave
0 0 0 setrgbcolor
newpath
375.26563 513.03015 moveto
375.08398 512.92469 374.88622 512.84705 374.67236 512.79724 curveto
374.45849 512.74745 374.22265 512.72254 373.96484 512.72253 curveto
373.05078 512.72254 372.34912 513.01991 371.85986 513.61462 curveto
371.3706 514.20936 371.12597 515.06336 371.12598 516.17664 curveto
371.12598 521.36218 lineto
369.5 521.36218 lineto
369.5 511.51843 lineto
371.12598 511.51843 lineto
371.12598 513.04773 lineto
371.46582 512.45008 371.9082 512.00623 372.45313 511.71619 curveto
372.99804 511.42616 373.66015 511.28114 374.43945 511.28113 curveto
374.55077 511.28114 374.67382 511.28846 374.80859 511.3031 curveto
374.94335 511.31776 375.09277 511.33973 375.25684 511.36902 curveto
375.26563 513.03015 lineto
closepath
fill
grestore
gsave
0 0 0 setrgbcolor
newpath
375.15625 523.69812 moveto
377.91016 523.69812 lineto
377.91016 524.36218 lineto
374.20703 524.36218 lineto
374.20703 523.69812 lineto
374.50651 523.38823 374.91471 522.97221 375.43164 522.45007 curveto
375.94857 521.92794 376.27343 521.59135 376.40625 521.44031 curveto
376.65885 521.15646 376.83528 520.91622 376.93555 520.7196 curveto
377.0358 520.52299 377.08593 520.32963 377.08594 520.13953 curveto
377.08593 519.82964 376.97721 519.57703 376.75977 519.38171 curveto
376.54231 519.18641 376.25911 519.08875 375.91016 519.08875 curveto
375.66276 519.08875 375.40169 519.13172 375.12695 519.21765 curveto
374.85221 519.30359 374.55859 519.4338 374.24609 519.60828 curveto
374.24609 518.8114 lineto
374.5638 518.6838 374.86068 518.58745 375.13672 518.52234 curveto
375.41276 518.45724 375.66536 518.42469 375.89453 518.42468 curveto
376.4987 518.42469 376.98047 518.57573 377.33984 518.87781 curveto
377.69921 519.1799 377.8789 519.58354 377.87891 520.08875 curveto
377.8789 520.32833 377.83398 520.55555 377.74414 520.77039 curveto
377.65429 520.98523 377.49088 521.23849 377.25391 521.53015 curveto
377.1888 521.60567 376.98177 521.82377 376.63281 522.18445 curveto
376.28385 522.54513 375.79166 523.04968 375.15625 523.69812 curveto
375.15625 523.69812 lineto
closepath
fill
grestore
0 0 0 setrgbcolor
[] 0 setdash
1 setlinewidth
0 setlinejoin
0 setlinecap
newpath
367.5 509.36219 moveto
376.5 509.36219 lineto
stroke
gsave [-0.3 0 0 -0.3 377.19 509.36219] concat
gsave
0 0 0 setrgbcolor
newpath
8.7185878 4.0337352 moveto
-2.2072895 0.016013256 lineto
8.7185884 -4.0017078 lineto
6.97309 -1.6296469 6.9831476 1.6157441 8.7185878 4.0337352 curveto
closepath
eofill
grestore
grestore
gsave
0 0 0 setrgbcolor
newpath
152.11328 538.69812 moveto
153.40234 538.69812 lineto
153.40234 534.2489 lineto
152 534.53015 lineto
152 533.8114 lineto
153.39453 533.53015 lineto
154.18359 533.53015 lineto
154.18359 538.69812 lineto
155.47266 538.69812 lineto
155.47266 539.36218 lineto
152.11328 539.36218 lineto
152.11328 538.69812 lineto
closepath
fill
grestore
0 0 0 setrgbcolor
[] 0 setdash
1 setlinewidth
0 setlinejoin
0 setlinecap
newpath
144 520.36218 moveto
156 520.36218 lineto
stroke
gsave [-0.3 0 0 -0.3 156.69 520.36218] concat
gsave
0 0 0 setrgbcolor
newpath
8.7185878 4.0337352 moveto
-2.2072895 0.016013256 lineto
8.7185884 -4.0017078 lineto
6.97309 -1.6296469 6.9831476 1.6157441 8.7185878 4.0337352 curveto
closepath
eofill
grestore
grestore
gsave
0 0 0 setrgbcolor
newpath
250.46715 594.17682 moveto
250.46715 599.39752 lineto
248.84117 599.39752 lineto
248.84117 585.80963 lineto
250.46715 585.80963 lineto
250.46715 587.30377 lineto
250.80699 586.71784 251.23619 586.28279 251.75475 585.9986 curveto
252.2733 585.71443 252.89292 585.57234 253.61363 585.57233 curveto
254.80894 585.57234 255.78013 586.04695 256.52721 586.99615 curveto
257.27427 587.94538 257.6478 589.19343 257.64781 590.7403 curveto
257.6478 592.28717 257.27427 593.53522 256.52721 594.48444 curveto
255.78013 595.43366 254.80894 595.90826 253.61363 595.90826 curveto
252.89292 595.90826 252.2733 595.76617 251.75475 595.48199 curveto
251.23619 595.19782 250.80699 594.76276 250.46715 594.17682 curveto
250.46715 594.17682 lineto
closepath
255.9691 590.7403 moveto
255.96909 589.55085 255.72446 588.61774 255.23521 587.94098 curveto
254.74595 587.26423 254.07359 586.92585 253.21812 586.92584 curveto
252.36265 586.92585 251.69029 587.26423 251.20103 587.94098 curveto
250.71177 588.61774 250.46714 589.55085 250.46715 590.7403 curveto
250.46714 591.92975 250.71177 592.86286 251.20103 593.53961 curveto
251.69029 594.21637 252.36265 594.55475 253.21812 594.55475 curveto
254.07359 594.55475 254.74595 594.21637 255.23521 593.53961 curveto
255.72446 592.86286 255.96909 591.92975 255.9691 590.7403 curveto
255.9691 590.7403 lineto
closepath
fill
grestore
gsave
0 0 0 setrgbcolor
newpath
255.30406 601.90826 moveto
258.05797 601.90826 lineto
258.05797 602.57233 lineto
254.35484 602.57233 lineto
254.35484 601.90826 lineto
254.65432 601.59837 255.06252 601.18235 255.57945 600.66022 curveto
256.09638 600.13808 256.42125 599.8015 256.55406 599.65045 curveto
256.80666 599.3666 256.9831 599.12637 257.08336 598.92975 curveto
257.18362 598.73314 257.23375 598.53978 257.23375 598.34967 curveto
257.23375 598.03978 257.12502 597.78718 256.90758 597.59186 curveto
256.69013 597.39655 256.40692 597.29889 256.05797 597.29889 curveto
255.81057 597.29889 255.5495 597.34186 255.27477 597.4278 curveto
255.00002 597.51374 254.7064 597.64395 254.39391 597.81842 curveto
254.39391 597.02155 lineto
254.71161 596.89395 255.00849 596.79759 255.28453 596.73248 curveto
255.56057 596.66738 255.81317 596.63483 256.04234 596.63483 curveto
256.64651 596.63483 257.12828 596.78587 257.48766 597.08795 curveto
257.84703 597.39004 258.02671 597.79369 258.02672 598.29889 curveto
258.02671 598.53848 257.98179 598.76569 257.89195 598.98053 curveto
257.8021 599.19538 257.63869 599.44863 257.40172 599.7403 curveto
257.33661 599.81582 257.12958 600.03392 256.78062 600.39459 curveto
256.43166 600.75527 255.93948 601.25983 255.30406 601.90826 curveto
255.30406 601.90826 lineto
closepath
fill
grestore
0 0 0 setrgbcolor
[] 0 setdash
1 setlinewidth
0 setlinejoin
0 setlinecap
newpath
246.64781 583.5723 moveto
258.64781 583.5723 lineto
stroke
gsave [-0.3 0 0 -0.3 259.33781 583.5723] concat
gsave
0 0 0 setrgbcolor
newpath
8.7185878 4.0337352 moveto
-2.2072895 0.016013256 lineto
8.7185884 -4.0017078 lineto
6.97309 -1.6296469 6.9831476 1.6157441 8.7185878 4.0337352 curveto
closepath
eofill
grestore
grestore
grestore
showpage
%%EOF
