\relax 
\@setckpt{eps.eps}{
\setcounter{page}{16}
\setcounter{equation}{35}
\setcounter{enumi}{0}
\setcounter{enumii}{0}
\setcounter{enumiii}{0}
\setcounter{enumiv}{0}
\setcounter{footnote}{0}
\setcounter{mpfootnote}{0}
\setcounter{part}{0}
\setcounter{section}{3}
\setcounter{subsection}{5}
\setcounter{subsubsection}{0}
\setcounter{paragraph}{0}
\setcounter{subparagraph}{0}
\setcounter{figure}{0}
\setcounter{table}{0}
\setcounter{r@tfl@t}{0}
\setcounter{cp@cnt}{0}
\setcounter{cp@tempcnt}{0}
\setcounter{point}{2}
\setcounter{subpoint}{0}
\setcounter{subsubpoint}{0}
\setcounter{appendix}{0}
\setcounter{LT@tables}{0}
\setcounter{LT@chunks}{0}
\setcounter{ESKD@figure}{0}
\setcounter{ESKD@table}{0}
\setcounter{ESKD@bibitem}{0}
\setcounter{parentequation}{0}
\setcounter{lstnumber}{1}
\setcounter{Item}{0}
\setcounter{Hfootnote}{0}
\setcounter{lstlisting}{0}
\setcounter{section@level}{2}
}
