\BOOKMARK [1][-]{section.1}{\376\377\004\022\004\062\004\065\004\064\004\065\004\075\004\070\004\065}{}
\BOOKMARK [1][-]{section.2}{\376\377\004\024\004\070\004\075\004\060\004\074\004\070\004\072\004\060\000\040\004\101\004\070\004\101\004\102\004\065\004\074\000\040\004\102\004\062\004\065\004\100\004\064\004\113\004\105\000\040\004\102\004\065\004\073}{}
\BOOKMARK [2][-]{subsection.2.1}{\376\377\004\037\004\076\004\067\004\070\004\106\004\070\004\070\000\040\004\070\000\040\004\076\004\100\004\070\004\065\004\075\004\102\004\060\004\106\004\070\004\117\000\040\004\102\004\065\004\073\000\040\004\062\000\040\004\077\004\100\004\076\004\101\004\102\004\100\004\060\004\075\004\101\004\102\004\062\004\065}{section.2}
\BOOKMARK [2][-]{subsection.2.2}{\376\377\004\032\004\070\004\075\004\065\004\074\004\060\004\102\004\070\004\107\004\065\004\101\004\072\004\070\004\065\000\040\004\103\004\100\004\060\004\062\004\075\004\065\004\075\004\070\004\117}{section.2}
\BOOKMARK [2][-]{subsection.2.3}{\376\377\004\043\004\100\004\060\004\062\004\075\004\065\004\075\004\070\004\117\000\040\004\064\004\070\004\075\004\060\004\074\004\070\004\072\004\070}{section.2}
\BOOKMARK [2][-]{subsection.2.4}{\376\377\004\042\004\065\004\075\004\067\004\076\004\100\000\040\004\070\004\075\004\065\004\100\004\106\004\070\004\070\000\040\004\102\004\062\004\065\004\100\004\064\004\076\004\063\004\076\000\040\004\102\004\065\004\073\004\060}{section.2}
\BOOKMARK [2][-]{subsection.2.5}{\376\377\004\034\004\060\004\102\004\100\004\070\004\107\004\075\004\076\004\065\000\040\004\077\004\100\004\065\004\064\004\101\004\102\004\060\004\062\004\073\004\065\004\075\004\070\004\065\000\040\004\070\004\101\004\077\004\076\004\073\004\114\004\067\004\103\004\065\004\074\004\113\004\105\000\040\004\062\004\065\004\073\004\070\004\107\004\070\004\075}{section.2}
\BOOKMARK [2][-]{subsection.2.6}{\376\377\004\041\004\062\004\117\004\067\004\070}{section.2}
\BOOKMARK [1][-]{section.3}{\376\377\004\043\004\100\004\060\004\062\004\075\004\065\004\075\004\070\004\117\000\040\004\033\004\060\004\063\004\100\004\060\004\075\004\066\004\060}{}
\BOOKMARK [2][-]{subsection.3.1}{\376\377\004\022\004\113\004\062\004\076\004\064\000\040\004\103\004\100\004\060\004\062\004\075\004\065\004\075\004\070\004\071\000\040\004\064\004\062\004\070\004\066\004\065\004\075\004\070\004\117\000\040\004\102\004\065\004\073\000\040\004\101\004\070\004\101\004\102\004\065\004\074\004\113\000\040\004\101\004\076\000\040\004\101\004\062\004\117\004\067\004\117\004\074\004\070}{section.3}
\BOOKMARK [2][-]{subsection.3.2}{\376\377\004\040\004\065\004\110\004\065\004\075\004\070\004\065\000\040\004\103\004\100\004\060\004\062\004\075\004\065\004\075\004\070\004\071\000\040\004\064\004\062\004\070\004\066\004\065\004\075\004\070\004\117\000\040\004\102\004\065\004\073\000\040\004\101\004\076\000\040\004\101\004\062\004\117\004\067\004\117\004\074\004\070}{section.3}
\BOOKMARK [2][-]{subsection.3.3}{\376\377\004\035\004\060\004\105\004\076\004\066\004\064\004\065\004\075\004\070\004\065\000\040\004\077\004\076\004\067\004\070\004\106\004\070\004\071\000\040\004\102\004\065\004\073}{section.3}
\BOOKMARK [2][-]{subsection.3.4}{\376\377\004\035\004\060\004\105\004\076\004\066\004\064\004\065\004\075\004\070\004\065\000\040\004\074\004\075\004\076\004\066\004\070\004\102\004\065\004\073\004\065\004\071\000\040\004\033\004\060\004\063\004\100\004\060\004\075\004\066\004\060}{section.3}
\BOOKMARK [2][-]{subsection.3.5}{\376\377\004\034\004\076\004\064\004\065\004\073\004\070\004\100\004\076\004\062\004\060\004\075\004\070\004\065\000\040\004\101\004\076\004\107\004\073\004\065\004\075\004\065\004\075\004\070\004\071}{section.3}
\BOOKMARK [1][-]{section.4}{\376\377\004\027\004\060\004\072\004\073\004\116\004\107\004\065\004\075\004\070\004\065}{}
\BOOKMARK [1][-]{section*.3}{\376\377\004\041\004\077\004\070\004\101\004\076\004\072\000\040\004\073\004\070\004\102\004\065\004\100\004\060\004\102\004\103\004\100\004\113}{}
