This is TeX, Version 3.1415926 (TeX Live 2013/Debian) (format=tex 2015.9.10)  18 DEC 2015 14:22
**q
(/usr/share/texlive/texmf-dist/tex/latex/tools/q.tex File ignored
)
! Emergency stop.
<*> q
     
*** (job aborted, no legal \end found)

No pages of output.
