\select@language {russian}
\contentsline {section}{\numberline {1}\IeC {\CYRO }\IeC {\cyrb }\IeC {\cyrshch }\IeC {\cyri }\IeC {\cyre } \IeC {\cyrp }\IeC {\cyro }\IeC {\cyrl }\IeC {\cyro }\IeC {\cyrzh }\IeC {\cyre }\IeC {\cyrn }\IeC {\cyri }\IeC {\cyrya }}{4}{section.1}
\contentsline {section}{\numberline {2}\IeC {\CYRR }\IeC {\cyru }\IeC {\cyrb }\IeC {\cyrr }\IeC {\cyri }\IeC {\cyrk }\IeC {\cyra }\IeC {\cyrc }\IeC {\cyri }\IeC {\cyrya }}{4}{section.2}
\contentsline {section}{\numberline {3}\IeC {\CYRO }\IeC {\cyrs }\IeC {\cyrn }\IeC {\cyro }\IeC {\cyrv }\IeC {\cyrn }\IeC {\cyrery }\IeC {\cyre } \IeC {\cyrerev }\IeC {\cyrl }\IeC {\cyre }\IeC {\cyrm }\IeC {\cyre }\IeC {\cyrn }\IeC {\cyrt }\IeC {\cyrery } \IeC {\cyrt }\IeC {\cyre }\IeC {\cyrk }\IeC {\cyrs }\IeC {\cyrt }\IeC {\cyra }}{5}{section.3}
\contentsline {section}{\numberline {4}\IeC {\CYRS }\IeC {\cyrn }\IeC {\cyro }\IeC {\cyrs }\IeC {\cyrk }\IeC {\cyri }}{6}{section.4}
\contentsline {section}{\numberline {5}\IeC {\CYRF }\IeC {\cyro }\IeC {\cyrr }\IeC {\cyrm }\IeC {\cyru }\IeC {\cyrl }\IeC {\cyrery }}{6}{section.5}
\contentsline {section}{\numberline {6}\IeC {\CYRT }\IeC {\cyra }\IeC {\cyrb }\IeC {\cyrl }\IeC {\cyri }\IeC {\cyrc }\IeC {\cyrery }}{7}{section.6}
\contentsline {section}{\numberline {7}\IeC {\CYRI }\IeC {\cyrl }\IeC {\cyrl }\IeC {\cyryu }\IeC {\cyrs }\IeC {\cyrt }\IeC {\cyrr }\IeC {\cyra }\IeC {\cyrc }\IeC {\cyri }\IeC {\cyri }}{8}{section.7}
\contentsline {section}{{\Russian \CYRP \cyrr \cyri \cyrl \cyro \cyrzh \cyre \cyrn \cyri \cyre }\ \CYRA \ \IeC {\CYRP }\IeC {\cyrr }\IeC {\cyri }\IeC {\cyrl }\IeC {\cyro }\IeC {\cyrzh }\IeC {\cyre }\IeC {\cyrn }\IeC {\cyri }\IeC {\cyre } c \IeC {\cyrr }\IeC {\cyri }\IeC {\cyrs }\IeC {\cyru }\IeC {\cyrn }\IeC {\cyrk }\IeC {\cyro }\IeC {\cyrm }}{9}{appendix.1}
\contentsline {section}{{\Russian \CYRP \cyrr \cyri \cyrl \cyro \cyrzh \cyre \cyrn \cyri \cyre }\ \CYRB \ \IeC {\CYRP }\IeC {\cyrr }\IeC {\cyri }\IeC {\cyrl }\IeC {\cyro }\IeC {\cyrzh }\IeC {\cyre }\IeC {\cyrn }\IeC {\cyri }\IeC {\cyre } c \IeC {\cyrt }\IeC {\cyre }\IeC {\cyrk }\IeC {\cyrs }\IeC {\cyrt }\IeC {\cyro }\IeC {\cyrm } \IeC {\cyri } \IeC {\cyrf }\IeC {\cyro }\IeC {\cyrr }\IeC {\cyrm }\IeC {\cyru }\IeC {\cyrl }\IeC {\cyra }\IeC {\cyrm }\IeC {\cyri }}{10}{appendix.2}
\contentsline {section}{{\Russian \CYRP \cyrr \cyri \cyrl \cyro \cyrzh \cyre \cyrn \cyri \cyre }\ \CYRV \ \IeC {\CYRI }\IeC {\cyrs }\IeC {\cyrh }\IeC {\cyro }\IeC {\cyrd }\IeC {\cyrn }\IeC {\cyrery }\IeC {\cyrishrt } \IeC {\cyrk }\IeC {\cyro }\IeC {\cyrd } \IeC {\cyrerev }\IeC {\cyrt }\IeC {\cyro }\IeC {\cyrg }\IeC {\cyro } \IeC {\cyrd }\IeC {\cyro }\IeC {\cyrk }\IeC {\cyru }\IeC {\cyrm }\IeC {\cyre }\IeC {\cyrn }\IeC {\cyrt }\IeC {\cyra }}{11}{appendix.3}
\contentsline {section}{{\Russian \CYRS \cyrp \cyri \cyrs \cyro \cyrk \ \cyrl \cyri \cyrt \cyre \cyrr \cyra \cyrt \cyru \cyrr \cyrery }}{19}{section*.2}
